<svg xmlns="http://www.w3.org/2000/svg" width="429" height="115.31" viewBox="0 0 429 115.31">
  <g id="logo" transform="translate(0 -0.876)">
    <path id="Path_1" data-name="Path 1" d="M237.967,9.624a9.225,9.225,0,0,0-8.119,10.384c.739,5.217,5.371,8.322,10.69,7.559s8.984-5.065,8.246-10.282A9.314,9.314,0,0,0,237.967,9.624Z" fill="#fff"/>
    <path id="Path_2" data-name="Path 2" d="M80.529,71.851a.471.471,0,0,0-.051-.178c-2.749-10-9.773-15.041-18.706-13.769A20.849,20.849,0,0,0,45.891,69.688a16.284,16.284,0,0,0-16.11-7.177A19.656,19.656,0,0,0,16.114,71.6a7.627,7.627,0,0,0-.891-2.214,8.145,8.145,0,0,0-4.556-3.614A8.036,8.036,0,0,0,7,65.437a8.133,8.133,0,0,0-5.37,3.207c-.127.178-.28.382-.382.56a8.3,8.3,0,0,0-1.222,5.09c0,.127.025.28.025.407L4.992,109.06c.025.127.051.28.076.407A8.187,8.187,0,0,0,21.2,106.718L17.819,83.151c1.68-3.461,4.4-5.726,7.89-6.235C29.883,76.3,32.555,79,33.8,85.034c.076.433.178.865.229,1.3l2.622,18.248c.025.128.051.28.076.408a8.187,8.187,0,0,0,16.136-2.749L49.48,78.723c1.68-3.589,4.378-5.854,7.864-6.337,4.047-.585,6.668,1.909,7.966,7.482l2.9,20.182a7.958,7.958,0,0,0,.305,1.3A8.169,8.169,0,0,0,84.4,97.734L80.886,73.353a.479.479,0,0,0-.051-.2A8.83,8.83,0,0,0,80.529,71.851Z" fill="#fff"/>
    <path id="Path_3" data-name="Path 3" d="M134.484,48.156a8.014,8.014,0,0,0-4.2-.509,8.15,8.15,0,0,0-4.887,2.6,43.746,43.746,0,0,0-12.089-.127c-15.652,2.24-27.257,16.161-24.89,32.628C90.48,97.1,102.035,105.471,114.2,103.715a20.242,20.242,0,0,0,14.787-9.875,3.591,3.591,0,0,0,.433.891,8.182,8.182,0,0,0,15.117-5.37L139.549,54.57A8.14,8.14,0,0,0,134.484,48.156Zm-7.228,36.038a12.442,12.442,0,0,1-8.882,5.65c-7.152,1.018-12.344-3.665-13.54-11.962-1.374-9.519,3.767-14.532,10.41-15.5a17.059,17.059,0,0,1,9.035,1.171Z" fill="#fff"/>
    <path id="Path_4" data-name="Path 4" d="M220.381,35.813a8.047,8.047,0,0,0-4.2-.509,8.15,8.15,0,0,0-4.887,2.6,43.916,43.916,0,0,0-12.114-.127c-15.652,2.24-27.258,16.161-24.891,32.628,2.061,14.354,13.616,22.727,25.807,20.971A20.265,20.265,0,0,0,214.884,81.5a3.622,3.622,0,0,0,.432.891,8.169,8.169,0,0,0,15.144-4.963c0-.127-.026-.28-.026-.407l-4.988-34.74c-.026-.127-.051-.28-.077-.407A8.027,8.027,0,0,0,220.381,35.813Zm-7.2,36.013a12.479,12.479,0,0,1-8.908,5.675c-7.152,1.018-12.344-3.665-13.54-11.962-1.374-9.519,3.767-14.532,10.435-15.5a16.867,16.867,0,0,1,9.035,1.2Z" fill="#fff"/>
    <path id="Path_5" data-name="Path 5" d="M423.528,12.932a8.224,8.224,0,0,0-9.112-6.108,8.222,8.222,0,0,0-4.886,2.6,44.1,44.1,0,0,0-12.14-.127c-15.652,2.24-27.258,16.161-24.891,32.628,2.062,14.354,13.616,22.728,25.782,20.971a20.246,20.246,0,0,0,14.812-9.9,4.626,4.626,0,0,0,.407.789,8.184,8.184,0,0,0,15.271-4.4c-.026-.28-.026-.56-.077-.84L423.706,13.8C423.655,13.467,423.579,13.187,423.528,12.932Zm-12.14,30.414a12.478,12.478,0,0,1-8.908,5.675c-7.152,1.018-12.343-3.665-13.54-11.962-1.374-9.519,3.767-14.532,10.41-15.5a16.683,16.683,0,0,1,9.06,1.2Z" fill="#fff"/>
    <path id="Path_6" data-name="Path 6" d="M245.22,32.122a8.111,8.111,0,0,0-9.366,2.774c-.178.255-.356.509-.483.738a8.023,8.023,0,0,0-1.146,4.479c.026.255.026.56.077.84l4.988,34.74c.051.28.1.535.153.814A8.195,8.195,0,0,0,255.5,73.352l-4.988-34.74A8.209,8.209,0,0,0,245.22,32.122Z" fill="#fff"/>
    <path id="Path_7" data-name="Path 7" d="M364.915,32.173a3.457,3.457,0,0,1-.128-.484c-3.054-11.224-11.427-15.856-20.818-14.507a24.664,24.664,0,0,0-16.365,9.9l-.051.076L324.779,7.893c-.025-.127-.051-.28-.076-.407A8.194,8.194,0,0,0,315.591.945h-.076a8,8,0,0,0-3.105,1.145h-.076a7.34,7.34,0,0,0-2.189,2.061,8.208,8.208,0,0,0-1.553,6.032v.051l7.814,54.439a1.746,1.746,0,0,0,.076.356c-.025.025-.025.025,0,.051a8.174,8.174,0,0,0,16.161-2.316c0-.127-.025-.28-.025-.407l-3.309-23.109c.026-.026.026-.051.051-.1,2.367-3.919,5.752-6.9,10.231-7.533,5.294-.764,8.577,2.392,10.079,8.6l2.774,19.266a7.332,7.332,0,0,0,.356,1.476,8.2,8.2,0,0,0,15.881-3.792l-3.435-23.847a2.562,2.562,0,0,0-.128-.636A1.315,1.315,0,0,1,364.915,32.173Z" fill="#fff"/>
    <path id="Path_8" data-name="Path 8" d="M152.835,24.309c-.026-.026-.026-.026-.051,0-.026-.026-.026-.026-.051,0H152.5a8.018,8.018,0,0,0-3.258,1.222H149.2a8.518,8.518,0,0,0-2.087,1.96,8.126,8.126,0,0,0-1.552,6.057l7.813,54.439a8.177,8.177,0,0,0,16.238-1.909c0-.127-.026-.28-.026-.407l-7.813-54.439c-.026-.127-.051-.28-.077-.407A8.141,8.141,0,0,0,152.835,24.309Z" fill="#fff"/>
    <path id="Path_9" data-name="Path 9" d="M308.923,62.663l-.763-.865c-.025,0-.026,0-.026-.025a5.919,5.919,0,0,0-4.861-1.476,6.03,6.03,0,0,0-1.705.484.087.087,0,0,1-.051.025,10.463,10.463,0,0,1-.992.611c-.026,0-.051,0-.051.025a23.715,23.715,0,0,1-8.7,3.258c-8.5,1.222-14.456-3.13-15.652-11.555C275,45.255,279.961,39.1,288.359,37.9a22.381,22.381,0,0,1,6.388,0h.026c.458.076.891.127,1.349.229.051.025.076,0,.1,0a8.628,8.628,0,0,0,1.145-.051,6.286,6.286,0,0,0,1.349-12.089c-.026,0-.051,0-.051-.026a6.17,6.17,0,0,0-1.654-.331.323.323,0,0,0-.153-.026,41.542,41.542,0,0,0-12.5-.331c-15.78,2.265-26.953,15.474-24.586,31.966,2.164,15.041,14.609,23.822,30.694,21.506a35.242,35.242,0,0,0,17.026-7.61c.357-.305.713-.585,1.044-.891.025-.025.025-.051.051-.076a6.054,6.054,0,0,0,1.45-4.836,5.792,5.792,0,0,0-1.094-2.672Z" fill="#fff"/>
    <path id="Path_10" data-name="Path 10" d="M316.075,103.562a6.092,6.092,0,0,1,6.261,6.287,6.353,6.353,0,1,1-6.261-6.287Z" fill="#fff"/>
    <path id="Path_11" data-name="Path 11" d="M339.974,109.289a3.833,3.833,0,0,0,2.85-1.018,3.968,3.968,0,0,0,.993-2.851h8.2a10,10,0,0,1-3.309,7.737,12.065,12.065,0,0,1-8.5,3.029c-4.072,0-7.279-1.3-9.646-3.92-2.342-2.621-3.512-6.235-3.512-10.867v-.382a17.759,17.759,0,0,1,1.552-7.661,11.7,11.7,0,0,1,4.53-5.116,13.2,13.2,0,0,1,7-1.807,12,12,0,0,1,8.679,3.105,11.122,11.122,0,0,1,3.207,8.4h-8.2a4.938,4.938,0,0,0-1.069-3.41,3.652,3.652,0,0,0-2.851-1.2q-3.4,0-3.97,4.428a30.761,30.761,0,0,0-.178,3.869c0,2.876.331,4.861,1.018,5.981A3.4,3.4,0,0,0,339.974,109.289Z" fill="#fff"/>
    <path id="Path_12" data-name="Path 12" d="M356.669,101.068a17.171,17.171,0,0,1,1.629-7.635,11.846,11.846,0,0,1,4.683-5.166,13.914,13.914,0,0,1,7.177-1.807c4.2,0,7.508,1.323,9.926,4C382.5,93.1,383.7,96.716,383.7,101.3v.306c0,4.479-1.222,8.017-3.64,10.638s-5.7,3.919-9.849,3.919a12.83,12.83,0,0,1-9.6-3.664c-2.418-2.444-3.716-5.778-3.919-9.952Zm8.73.56c0,2.647.407,4.581,1.221,5.828a4.006,4.006,0,0,0,3.589,1.858c3.1,0,4.708-2.443,4.759-7.33v-.89q0-7.712-4.81-7.712-4.391,0-4.734,6.643Z" fill="#fff"/>
    <path id="Path_13" data-name="Path 13" d="M396.551,87.528l.28,3.359a9.555,9.555,0,0,1,7.991-3.894c3.538,0,5.93,1.451,7.177,4.327a9.282,9.282,0,0,1,8.246-4.327q8.514,0,8.755,10.537v18.655h-8.755V98.09a5.745,5.745,0,0,0-.712-3.207,3.1,3.1,0,0,0-2.647-1.018,4.15,4.15,0,0,0-3.869,2.367l.026.382v19.572h-8.755V98.141a5.9,5.9,0,0,0-.688-3.258,3.056,3.056,0,0,0-2.672-1.018,4.191,4.191,0,0,0-3.843,2.367v19.953h-8.73V87.528Z" fill="#fff"/>
  </g>
</svg>
