<svg xmlns="http://www.w3.org/2000/svg" width="20.16" height="20.16" viewBox="0 0 20.16 20.16">
  <g id="Group_1" data-name="Group 1" transform="translate(-185 -272)">
    <path id="Vector" d="M10.08,20.16A10.08,10.08,0,1,1,17.2,17.211,10.08,10.08,0,0,1,10.08,20.16Z" transform="translate(185 272)" fill="#f79421"/>
    <path id="Vector_6_" data-name="Vector (6)" d="M12.69,8.09a6.079,6.079,0,0,0,0-4,.138.138,0,0,0,0-.06,6.1,6.1,0,0,0-11.47,0,.14.14,0,0,0,0,.06,6.08,6.08,0,0,0,0,4,.14.14,0,0,0,0,.06,6.1,6.1,0,0,0,11.47,0A.138.138,0,0,0,12.69,8.09ZM6.93,11.31c-.23,0-.6-.42-.91-1.36a7.929,7.929,0,0,1-.36-1.54H8.21a7.929,7.929,0,0,1-.36,1.54C7.54,10.89,7.17,11.31,6.93,11.31ZM5.55,7.53c0-.46-.06-.95-.06-1.44a11.4,11.4,0,0,1,.06-1.45H8.32c0,.46.06.95.06,1.45a11.089,11.089,0,0,1-.06,1.44ZM1.71,6.09a4.94,4.94,0,0,1,.21-1.45H4.69c0,.47-.06,1-.06,1.45a11.481,11.481,0,0,0,.06,1.44H1.95a4.92,4.92,0,0,1-.21-1.44ZM6.93.86c.24,0,.61.42.92,1.36a7.93,7.93,0,0,1,.36,1.54H5.69a7.93,7.93,0,0,1,.36-1.54c.31-.94.68-1.36.91-1.36ZM9.2,4.64h2.75a5.08,5.08,0,0,1,0,2.89H9.23c0-.47.06-1,.06-1.44a11.8,11.8,0,0,0-.06-1.45Zm2.41-.88H9.13a8.68,8.68,0,0,0-.8-2.72,5.27,5.27,0,0,1,3.36,2.72Zm-6-2.72a8.68,8.68,0,0,0-.8,2.72H2.29A5.27,5.27,0,0,1,5.6,1.04ZM2.3,8.41H4.81a8.68,8.68,0,0,0,.8,2.72A5.269,5.269,0,0,1,2.3,8.41Zm6,2.72a8.68,8.68,0,0,0,.8-2.72h2.59a5.269,5.269,0,0,1-3.31,2.72Z" transform="translate(188.118 275.992)" fill="#fff"/>
  </g>
</svg>
